id,name,model_id:id,group_id:id,perm_read,perm_write,perm_create,perm_unlink
crm_mauryadev_ept_invoice_rights,crm_mauryadev_ept_access_rights_invoice,model_account_invoice,maurya_invoice_advance,1,1,1,1
crm_mauryadev_ept_rights_sale_rights,crm_mauryadev_ept_access_rights_sale,model_sale_order,maurya_sales_advance,1,1,1,1
crm_mauryadev_ept_invoice_alternative_model_rights,crm_mauryadev_ept_access_rights_invoice_alternative_product,model_alternative_invoice_product_line,base.group_sale_salesman,1,1,1,1
crm_mauryadev_ept__alternative_model_rights,crm_mauryadev_ept_access_rights_alternative_product,model_alternative_product_line,account.group_account_invoice,1,1,1,1
